Mail Id - 

		1. ework.care@gmail.com        -  eworkework
		2. ework.contactus@gmail.com   -  contacteworkcare     
 		3. BitBucket Account           -  eworkcarearhi 
						
						  username:  arhi_ework
