
Change backend Address :

                        -->src --> setupProxy --->

Chnage Address of Db :
 
                        --->server --->database  --->


               					a. 'index.js' -for faculty
						b.  'student.js' -for student    --->In both of the case chaange in  line-3 & line-19


p-key :  BMMJ0nsSSph0T0SHbPkqVRluET5Kp_KfjOunfbsuNJKdT9EfvNSp-z21uqS8VEXXIffkcd8UcsZT5xQyNCPsYGI
private-key - uPBvkDyfq7Rfw26fKG1KaM7vVQwcE_gR4JJCX7f1X7g
