
Change backend Address :

                        -->src --> setupProxy --->

Chnage Address of Db :
 
                        --->server --->database  --->


               					a. 'index.js' -for faculty
						b.  'student.js' -for student    --->In both of the case chaange in  line-3 & line-19
